-- Merging decision tree log ---
manifest
ADDED from D:\SVN\04_SourceCode\FSS\android\app\src\main\AndroidManifest.xml:1:1-45:12
	package
		ADDED from D:\SVN\04_SourceCode\FSS\android\app\src\main\AndroidManifest.xml:2:5-34
		INJECTED from D:\SVN\04_SourceCode\FSS\android\app\src\main\AndroidManifest.xml
		INJECTED from D:\SVN\04_SourceCode\FSS\android\app\src\main\AndroidManifest.xml
	android:versionName
		ADDED from D:\SVN\04_SourceCode\FSS\android\app\src\main\AndroidManifest.xml:4:5-30
		INJECTED from D:\SVN\04_SourceCode\FSS\android\app\src\main\AndroidManifest.xml
		INJECTED from D:\SVN\04_SourceCode\FSS\android\app\src\main\AndroidManifest.xml
	android:versionCode
		ADDED from D:\SVN\04_SourceCode\FSS\android\app\src\main\AndroidManifest.xml:3:5-28
		INJECTED from D:\SVN\04_SourceCode\FSS\android\app\src\main\AndroidManifest.xml
		INJECTED from D:\SVN\04_SourceCode\FSS\android\app\src\main\AndroidManifest.xml
	xmlns:android
		ADDED from D:\SVN\04_SourceCode\FSS\android\app\src\main\AndroidManifest.xml:1:11-69
uses-permission#android.permission.WRITE_EXTERNAL_STORAGE
ADDED from D:\SVN\04_SourceCode\FSS\android\app\src\main\AndroidManifest.xml:6:5-81
MERGED from [RN_Project_test:react-native-fs:unspecified] D:\SVN\04_SourceCode\FSS\node_modules\react-native-fs\android\build\intermediates\bundles\default\AndroidManifest.xml:11:5-81
	android:name
		ADDED from D:\SVN\04_SourceCode\FSS\android\app\src\main\AndroidManifest.xml:6:22-78
uses-permission#android.permission.READ_EXTERNAL_STORAGE
ADDED from D:\SVN\04_SourceCode\FSS\android\app\src\main\AndroidManifest.xml:7:5-80
	android:name
		ADDED from D:\SVN\04_SourceCode\FSS\android\app\src\main\AndroidManifest.xml:7:22-77
uses-permission#android.permission.CAMERA
ADDED from D:\SVN\04_SourceCode\FSS\android\app\src\main\AndroidManifest.xml:8:5-64
	android:name
		ADDED from D:\SVN\04_SourceCode\FSS\android\app\src\main\AndroidManifest.xml:8:22-62
uses-permission#android.permission.INTERNET
ADDED from D:\SVN\04_SourceCode\FSS\android\app\src\main\AndroidManifest.xml:9:5-67
MERGED from [com.google.android.gms:play-services-gcm:11.0.2] C:\Users\NARA-ThanhTV\.android\build-cache\1ba0122f157286466314b270dc85632816ec6ee5\output\AndroidManifest.xml:21:5-66
MERGED from [com.google.android.gms:play-services-iid:11.0.2] C:\Users\NARA-ThanhTV\.android\build-cache\514fde21750a7a57712a1d083e48a40e46a26103\output\AndroidManifest.xml:21:5-66
MERGED from [com.crashlytics.sdk.android:crashlytics:2.6.8] C:\Users\NARA-ThanhTV\.android\build-cache\9cba6f0bc55f767772a8d0414bb9b310b4841170\output\AndroidManifest.xml:9:5-67
MERGED from [com.crashlytics.sdk.android:beta:1.2.5] C:\Users\NARA-ThanhTV\.android\build-cache\5c4ec3e1c539114a5537e64b8a1c354dd9198a6f\output\AndroidManifest.xml:9:5-67
MERGED from [com.crashlytics.sdk.android:crashlytics-core:2.3.17] C:\Users\NARA-ThanhTV\.android\build-cache\6ef3ad0a7a7234cd027988f1b9c1f168042bbbdb\output\AndroidManifest.xml:52:5-67
MERGED from [com.crashlytics.sdk.android:answers:1.3.13] C:\Users\NARA-ThanhTV\.android\build-cache\75fa75075105e0561ff9f9f5f1808664f283a2ea\output\AndroidManifest.xml:9:5-67
MERGED from [io.fabric.sdk.android:fabric:1.3.17] C:\Users\NARA-ThanhTV\.android\build-cache\feb61d3a6ddac9ea662be69eb86c88a4fa7ead89\output\AndroidManifest.xml:29:5-67
	android:name
		ADDED from D:\SVN\04_SourceCode\FSS\android\app\src\main\AndroidManifest.xml:9:22-64
uses-permission#android.permission.SYSTEM_ALERT_WINDOW
ADDED from D:\SVN\04_SourceCode\FSS\android\app\src\main\AndroidManifest.xml:10:5-77
MERGED from [com.facebook.react:react-native:0.46.2] C:\Users\NARA-ThanhTV\.android\build-cache\ddf3cee38bac7434be7e873c1693e751b7842ed6\output\AndroidManifest.xml:11:5-78
	android:name
		ADDED from D:\SVN\04_SourceCode\FSS\android\app\src\main\AndroidManifest.xml:10:22-75
uses-permission#android.permission.ACCESS_FINE_LOCATION
ADDED from D:\SVN\04_SourceCode\FSS\android\app\src\main\AndroidManifest.xml:11:2-76
	android:name
		ADDED from D:\SVN\04_SourceCode\FSS\android\app\src\main\AndroidManifest.xml:11:19-73
uses-permission#android.permission.BLUETOOTH
ADDED from D:\SVN\04_SourceCode\FSS\android\app\src\main\AndroidManifest.xml:12:2-64
	android:name
		ADDED from D:\SVN\04_SourceCode\FSS\android\app\src\main\AndroidManifest.xml:12:19-62
uses-feature#android.hardware.camera
ADDED from D:\SVN\04_SourceCode\FSS\android\app\src\main\AndroidManifest.xml:14:5-85
	android:required
		ADDED from D:\SVN\04_SourceCode\FSS\android\app\src\main\AndroidManifest.xml:14:58-82
	android:name
		ADDED from D:\SVN\04_SourceCode\FSS\android\app\src\main\AndroidManifest.xml:14:19-57
uses-feature#android.hardware.camera.autofocus
ADDED from D:\SVN\04_SourceCode\FSS\android\app\src\main\AndroidManifest.xml:15:5-95
	android:required
		ADDED from D:\SVN\04_SourceCode\FSS\android\app\src\main\AndroidManifest.xml:15:68-92
	android:name
		ADDED from D:\SVN\04_SourceCode\FSS\android\app\src\main\AndroidManifest.xml:15:19-67
uses-sdk
ADDED from D:\SVN\04_SourceCode\FSS\android\app\src\main\AndroidManifest.xml:17:5-19:41
MERGED from [RN_Project_test:react-native-view-shot:unspecified] D:\SVN\04_SourceCode\FSS\node_modules\react-native-view-shot\android\build\intermediates\bundles\default\AndroidManifest.xml:7:5-9:41
MERGED from [RN_Project_test:react-native-fs:unspecified] D:\SVN\04_SourceCode\FSS\node_modules\react-native-fs\android\build\intermediates\bundles\default\AndroidManifest.xml:7:5-9:41
MERGED from [RN_Project_test:react-native-device-info:unspecified] D:\SVN\04_SourceCode\FSS\node_modules\react-native-device-info\android\build\intermediates\bundles\default\AndroidManifest.xml:7:5-9:41
MERGED from [com.google.android.gms:play-services-gcm:11.0.2] C:\Users\NARA-ThanhTV\.android\build-cache\1ba0122f157286466314b270dc85632816ec6ee5\output\AndroidManifest.xml:17:5-43
MERGED from [com.google.android.gms:play-services-iid:11.0.2] C:\Users\NARA-ThanhTV\.android\build-cache\514fde21750a7a57712a1d083e48a40e46a26103\output\AndroidManifest.xml:17:5-43
MERGED from [com.google.android.gms:play-services-base:11.0.2] C:\Users\NARA-ThanhTV\.android\build-cache\17177a31a173c19fe6a8e570f27a78a14f3b5e66\output\AndroidManifest.xml:17:5-43
MERGED from [com.google.android.gms:play-services-tasks:11.0.2] C:\Users\NARA-ThanhTV\.android\build-cache\4f78b25d5b9c76620e730f3a8f13fb97db41dcc0\output\AndroidManifest.xml:3:5-43
MERGED from [com.google.android.gms:play-services-basement:11.0.2] C:\Users\NARA-ThanhTV\.android\build-cache\0b0c790b83e305ac8b699d72dafea8a0e85f584c\output\AndroidManifest.xml:17:5-43
MERGED from [RN_Project_test:react-native-fetch-blob:unspecified] D:\SVN\04_SourceCode\FSS\node_modules\react-native-fetch-blob\android\build\intermediates\bundles\default\AndroidManifest.xml:7:5-9:41
MERGED from [com.facebook.react:react-native:0.46.2] C:\Users\NARA-ThanhTV\.android\build-cache\ddf3cee38bac7434be7e873c1693e751b7842ed6\output\AndroidManifest.xml:7:5-9:41
MERGED from [com.facebook.fbui.textlayoutbuilder:textlayoutbuilder:1.0.0] C:\Users\NARA-ThanhTV\.android\build-cache\34e44dda210e9daf7411a217ea8e15f2f8bc7621\output\AndroidManifest.xml:14:5-16:41
MERGED from [com.facebook.fresco:fresco:1.0.1] C:\Users\NARA-ThanhTV\.android\build-cache\6e56a4a0a8d9bb5104e8492249ef706e1168c50e\output\AndroidManifest.xml:5:5-7:41
MERGED from [com.facebook.fresco:drawee:1.0.1] C:\Users\NARA-ThanhTV\.android\build-cache\c953d4a2a7edfce9cf269e045c1752e3d731e751\output\AndroidManifest.xml:5:5-7:41
MERGED from [com.facebook.fresco:imagepipeline-okhttp3:1.0.1] C:\Users\NARA-ThanhTV\.android\build-cache\f712d8f6bcba2bc21500579112092efc40cf37db\output\AndroidManifest.xml:5:5-7:41
MERGED from [com.facebook.fresco:imagepipeline:1.0.1] C:\Users\NARA-ThanhTV\.android\build-cache\d587e3d6764ce8af6d7b6ba03ba1b27605d3993d\output\AndroidManifest.xml:5:5-7:41
MERGED from [com.facebook.fresco:imagepipeline-base:1.0.1] C:\Users\NARA-ThanhTV\.android\build-cache\ce5a988c22f0f3dea863a5252ee7f54bfbc32d48\output\AndroidManifest.xml:5:5-7:41
MERGED from [com.facebook.fresco:fbcore:1.0.1] C:\Users\NARA-ThanhTV\.android\build-cache\27e3146d8b9763851ffba7879db930a918e17a05\output\AndroidManifest.xml:5:5-7:41
MERGED from [com.facebook.soloader:soloader:0.1.0] C:\Users\NARA-ThanhTV\.android\build-cache\8e3ced7894770cc63c0435fff6b0c368fb2eae06\output\AndroidManifest.xml:2:3-70
MERGED from [com.github.dexafree:materiallist:3.0.1] C:\Users\NARA-ThanhTV\.android\build-cache\374df4da877791d0dea0b72565defcb1bd5ae1ca\output\AndroidManifest.xml:7:5-9:41
MERGED from [com.android.support:appcompat-v7:25.3.1] C:\Users\NARA-ThanhTV\.android\build-cache\2955f279e2f8e6e261c9ee141a700689ac3e5ad6\output\AndroidManifest.xml:21:5-23:78
MERGED from [com.android.support:animated-vector-drawable:25.3.1] C:\Users\NARA-ThanhTV\.android\build-cache\5a8a59c4908eb1e29792b0c98f928bed3b98b21d\output\AndroidManifest.xml:20:5-44
MERGED from [com.android.support:support-vector-drawable:25.3.1] C:\Users\NARA-ThanhTV\.android\build-cache\0b6d35f51792d61cc0e224b0bfe7de15cbcdd4a2\output\AndroidManifest.xml:20:5-43
MERGED from [com.android.support:cardview-v7:22.2.0] C:\Users\NARA-ThanhTV\.android\build-cache\3e4635dc09cc280c9ca2e8eb8cd3a68399f0bdcc\output\AndroidManifest.xml:20:5-43
MERGED from [com.android.support:recyclerview-v7:22.2.0] C:\Users\NARA-ThanhTV\.android\build-cache\a0ca1fe9663096fa12c08badcfb9aea1ae9236c7\output\AndroidManifest.xml:20:5-43
MERGED from [com.android.support:support-v4:25.3.1] C:\Users\NARA-ThanhTV\.android\build-cache\1edee2473a5714e4733e0555dc40ef94e413cfe8\output\AndroidManifest.xml:21:5-23:54
MERGED from [com.android.support:support-fragment:25.3.1] C:\Users\NARA-ThanhTV\.android\build-cache\e04cc05f57ce8bdca5d6d1f6bcc201b06b3ade3b\output\AndroidManifest.xml:21:5-23:60
MERGED from [com.android.support:support-media-compat:25.3.1] C:\Users\NARA-ThanhTV\.android\build-cache\da5d3774ab4eee18cd238d00f8b5e1f18ca29042\output\AndroidManifest.xml:21:5-23:63
MERGED from [com.android.support:support-core-ui:25.3.1] C:\Users\NARA-ThanhTV\.android\build-cache\6e30074eee18e3309f5e1410c28b8c717bf7a781\output\AndroidManifest.xml:21:5-23:58
MERGED from [com.android.support:support-core-utils:25.3.1] C:\Users\NARA-ThanhTV\.android\build-cache\a9ec874a3e63ff1e79656ae65b1cd978febc9ae9\output\AndroidManifest.xml:21:5-23:61
MERGED from [com.android.support:support-compat:25.3.1] C:\Users\NARA-ThanhTV\.android\build-cache\9c8339364353c832210a1ed54393c81535dca1c6\output\AndroidManifest.xml:21:5-23:58
MERGED from [com.crashlytics.sdk.android:crashlytics:2.6.8] C:\Users\NARA-ThanhTV\.android\build-cache\9cba6f0bc55f767772a8d0414bb9b310b4841170\output\AndroidManifest.xml:7:5-43
MERGED from [com.crashlytics.sdk.android:beta:1.2.5] C:\Users\NARA-ThanhTV\.android\build-cache\5c4ec3e1c539114a5537e64b8a1c354dd9198a6f\output\AndroidManifest.xml:7:5-43
MERGED from [com.crashlytics.sdk.android:crashlytics-core:2.3.17] C:\Users\NARA-ThanhTV\.android\build-cache\6ef3ad0a7a7234cd027988f1b9c1f168042bbbdb\output\AndroidManifest.xml:50:5-43
MERGED from [com.crashlytics.sdk.android:answers:1.3.13] C:\Users\NARA-ThanhTV\.android\build-cache\75fa75075105e0561ff9f9f5f1808664f283a2ea\output\AndroidManifest.xml:7:5-43
MERGED from [io.fabric.sdk.android:fabric:1.3.17] C:\Users\NARA-ThanhTV\.android\build-cache\feb61d3a6ddac9ea662be69eb86c88a4fa7ead89\output\AndroidManifest.xml:27:5-43
	tools:overrideLibrary
		ADDED from [com.android.support:appcompat-v7:25.3.1] C:\Users\NARA-ThanhTV\.android\build-cache\2955f279e2f8e6e261c9ee141a700689ac3e5ad6\output\AndroidManifest.xml:23:9-75
	android:targetSdkVersion
		ADDED from D:\SVN\04_SourceCode\FSS\android\app\src\main\AndroidManifest.xml:19:9-38
		INJECTED from D:\SVN\04_SourceCode\FSS\android\app\src\main\AndroidManifest.xml
		INJECTED from D:\SVN\04_SourceCode\FSS\android\app\src\main\AndroidManifest.xml
	android:minSdkVersion
		ADDED from D:\SVN\04_SourceCode\FSS\android\app\src\main\AndroidManifest.xml:18:9-35
		INJECTED from D:\SVN\04_SourceCode\FSS\android\app\src\main\AndroidManifest.xml
		INJECTED from D:\SVN\04_SourceCode\FSS\android\app\src\main\AndroidManifest.xml
application
ADDED from D:\SVN\04_SourceCode\FSS\android\app\src\main\AndroidManifest.xml:21:5-43:19
MERGED from [com.google.android.gms:play-services-gcm:11.0.2] C:\Users\NARA-ThanhTV\.android\build-cache\1ba0122f157286466314b270dc85632816ec6ee5\output\AndroidManifest.xml:23:5-19
MERGED from [com.google.android.gms:play-services-iid:11.0.2] C:\Users\NARA-ThanhTV\.android\build-cache\514fde21750a7a57712a1d083e48a40e46a26103\output\AndroidManifest.xml:23:5-19
MERGED from [com.google.android.gms:play-services-base:11.0.2] C:\Users\NARA-ThanhTV\.android\build-cache\17177a31a173c19fe6a8e570f27a78a14f3b5e66\output\AndroidManifest.xml:18:5-20:19
MERGED from [com.google.android.gms:play-services-tasks:11.0.2] C:\Users\NARA-ThanhTV\.android\build-cache\4f78b25d5b9c76620e730f3a8f13fb97db41dcc0\output\AndroidManifest.xml:4:5-19
MERGED from [com.google.android.gms:play-services-basement:11.0.2] C:\Users\NARA-ThanhTV\.android\build-cache\0b0c790b83e305ac8b699d72dafea8a0e85f584c\output\AndroidManifest.xml:19:5-21:19
MERGED from [RN_Project_test:react-native-fetch-blob:unspecified] D:\SVN\04_SourceCode\FSS\node_modules\react-native-fetch-blob\android\build\intermediates\bundles\default\AndroidManifest.xml:11:5-12:19
MERGED from [com.facebook.react:react-native:0.46.2] C:\Users\NARA-ThanhTV\.android\build-cache\ddf3cee38bac7434be7e873c1693e751b7842ed6\output\AndroidManifest.xml:13:5-20
MERGED from [com.facebook.soloader:soloader:0.1.0] C:\Users\NARA-ThanhTV\.android\build-cache\8e3ced7894770cc63c0435fff6b0c368fb2eae06\output\AndroidManifest.xml:3:3-17
MERGED from [org.webkit:android-jsc:r174650] C:\Users\NARA-ThanhTV\.android\build-cache\30a92054558af9f82454bf3d0b048ee40b4ef870\output\AndroidManifest.xml:2:3-17
MERGED from [com.github.dexafree:materiallist:3.0.1] C:\Users\NARA-ThanhTV\.android\build-cache\374df4da877791d0dea0b72565defcb1bd5ae1ca\output\AndroidManifest.xml:11:5-14:19
MERGED from [com.android.support:appcompat-v7:25.3.1] C:\Users\NARA-ThanhTV\.android\build-cache\2955f279e2f8e6e261c9ee141a700689ac3e5ad6\output\AndroidManifest.xml:29:5-20
MERGED from [com.android.support:animated-vector-drawable:25.3.1] C:\Users\NARA-ThanhTV\.android\build-cache\5a8a59c4908eb1e29792b0c98f928bed3b98b21d\output\AndroidManifest.xml:26:5-20
MERGED from [com.android.support:support-vector-drawable:25.3.1] C:\Users\NARA-ThanhTV\.android\build-cache\0b6d35f51792d61cc0e224b0bfe7de15cbcdd4a2\output\AndroidManifest.xml:26:5-20
MERGED from [com.android.support:cardview-v7:22.2.0] C:\Users\NARA-ThanhTV\.android\build-cache\3e4635dc09cc280c9ca2e8eb8cd3a68399f0bdcc\output\AndroidManifest.xml:22:5-20
MERGED from [com.android.support:support-v4:25.3.1] C:\Users\NARA-ThanhTV\.android\build-cache\1edee2473a5714e4733e0555dc40ef94e413cfe8\output\AndroidManifest.xml:29:5-20
MERGED from [com.android.support:support-fragment:25.3.1] C:\Users\NARA-ThanhTV\.android\build-cache\e04cc05f57ce8bdca5d6d1f6bcc201b06b3ade3b\output\AndroidManifest.xml:29:5-20
MERGED from [com.android.support:support-media-compat:25.3.1] C:\Users\NARA-ThanhTV\.android\build-cache\da5d3774ab4eee18cd238d00f8b5e1f18ca29042\output\AndroidManifest.xml:29:5-20
MERGED from [com.android.support:support-core-ui:25.3.1] C:\Users\NARA-ThanhTV\.android\build-cache\6e30074eee18e3309f5e1410c28b8c717bf7a781\output\AndroidManifest.xml:29:5-20
MERGED from [com.android.support:support-core-utils:25.3.1] C:\Users\NARA-ThanhTV\.android\build-cache\a9ec874a3e63ff1e79656ae65b1cd978febc9ae9\output\AndroidManifest.xml:29:5-20
MERGED from [com.android.support:support-compat:25.3.1] C:\Users\NARA-ThanhTV\.android\build-cache\9c8339364353c832210a1ed54393c81535dca1c6\output\AndroidManifest.xml:29:5-20
MERGED from [com.crashlytics.sdk.android:crashlytics:2.6.8] C:\Users\NARA-ThanhTV\.android\build-cache\9cba6f0bc55f767772a8d0414bb9b310b4841170\output\AndroidManifest.xml:11:5-20
MERGED from [com.crashlytics.sdk.android:beta:1.2.5] C:\Users\NARA-ThanhTV\.android\build-cache\5c4ec3e1c539114a5537e64b8a1c354dd9198a6f\output\AndroidManifest.xml:11:5-20
MERGED from [com.crashlytics.sdk.android:crashlytics-core:2.3.17] C:\Users\NARA-ThanhTV\.android\build-cache\6ef3ad0a7a7234cd027988f1b9c1f168042bbbdb\output\AndroidManifest.xml:54:5-20
MERGED from [com.crashlytics.sdk.android:answers:1.3.13] C:\Users\NARA-ThanhTV\.android\build-cache\75fa75075105e0561ff9f9f5f1808664f283a2ea\output\AndroidManifest.xml:11:5-20
MERGED from [io.fabric.sdk.android:fabric:1.3.17] C:\Users\NARA-ThanhTV\.android\build-cache\feb61d3a6ddac9ea662be69eb86c88a4fa7ead89\output\AndroidManifest.xml:31:5-20
	android:label
		ADDED from D:\SVN\04_SourceCode\FSS\android\app\src\main\AndroidManifest.xml:25:7-39
	android:hardwareAccelerated
		ADDED from D:\SVN\04_SourceCode\FSS\android\app\src\main\AndroidManifest.xml:22:7-41
	android:allowBackup
		ADDED from D:\SVN\04_SourceCode\FSS\android\app\src\main\AndroidManifest.xml:24:7-33
	android:icon
		ADDED from D:\SVN\04_SourceCode\FSS\android\app\src\main\AndroidManifest.xml:26:7-41
	android:theme
		ADDED from D:\SVN\04_SourceCode\FSS\android\app\src\main\AndroidManifest.xml:27:7-38
	android:name
		ADDED from D:\SVN\04_SourceCode\FSS\android\app\src\main\AndroidManifest.xml:23:7-38
activity#com.rn_project_test.MainActivity
ADDED from D:\SVN\04_SourceCode\FSS\android\app\src\main\AndroidManifest.xml:28:7-38:18
	android:screenOrientation
		ADDED from D:\SVN\04_SourceCode\FSS\android\app\src\main\AndroidManifest.xml:33:9-45
	android:label
		ADDED from D:\SVN\04_SourceCode\FSS\android\app\src\main\AndroidManifest.xml:30:9-41
	android:windowSoftInputMode
		ADDED from D:\SVN\04_SourceCode\FSS\android\app\src\main\AndroidManifest.xml:32:9-51
	android:configChanges
		ADDED from D:\SVN\04_SourceCode\FSS\android\app\src\main\AndroidManifest.xml:31:9-79
	android:name
		ADDED from D:\SVN\04_SourceCode\FSS\android\app\src\main\AndroidManifest.xml:29:9-37
intent-filter#android.intent.action.MAIN+android.intent.category.LAUNCHER
ADDED from D:\SVN\04_SourceCode\FSS\android\app\src\main\AndroidManifest.xml:34:9-37:25
action#android.intent.action.MAIN
ADDED from D:\SVN\04_SourceCode\FSS\android\app\src\main\AndroidManifest.xml:35:13-65
	android:name
		ADDED from D:\SVN\04_SourceCode\FSS\android\app\src\main\AndroidManifest.xml:35:21-62
category#android.intent.category.LAUNCHER
ADDED from D:\SVN\04_SourceCode\FSS\android\app\src\main\AndroidManifest.xml:36:13-73
	android:name
		ADDED from D:\SVN\04_SourceCode\FSS\android\app\src\main\AndroidManifest.xml:36:23-70
activity#com.facebook.react.devsupport.DevSettingsActivity
ADDED from D:\SVN\04_SourceCode\FSS\android\app\src\main\AndroidManifest.xml:39:7-84
	android:name
		ADDED from D:\SVN\04_SourceCode\FSS\android\app\src\main\AndroidManifest.xml:39:17-81
meta-data#io.fabric.ApiKey
ADDED from D:\SVN\04_SourceCode\FSS\android\app\src\main\AndroidManifest.xml:40:9-42:72
	android:value
		ADDED from D:\SVN\04_SourceCode\FSS\android\app\src\main\AndroidManifest.xml:42:13-69
	android:name
		ADDED from D:\SVN\04_SourceCode\FSS\android\app\src\main\AndroidManifest.xml:41:13-44
uses-permission#com.google.android.c2dm.permission.RECEIVE
ADDED from [com.google.android.gms:play-services-gcm:11.0.2] C:\Users\NARA-ThanhTV\.android\build-cache\1ba0122f157286466314b270dc85632816ec6ee5\output\AndroidManifest.xml:20:5-81
MERGED from [com.google.android.gms:play-services-iid:11.0.2] C:\Users\NARA-ThanhTV\.android\build-cache\514fde21750a7a57712a1d083e48a40e46a26103\output\AndroidManifest.xml:20:5-81
	android:name
		ADDED from [com.google.android.gms:play-services-gcm:11.0.2] C:\Users\NARA-ThanhTV\.android\build-cache\1ba0122f157286466314b270dc85632816ec6ee5\output\AndroidManifest.xml:20:22-79
activity#com.google.android.gms.common.api.GoogleApiActivity
ADDED from [com.google.android.gms:play-services-base:11.0.2] C:\Users\NARA-ThanhTV\.android\build-cache\17177a31a173c19fe6a8e570f27a78a14f3b5e66\output\AndroidManifest.xml:19:9-172
	android:exported
		ADDED from [com.google.android.gms:play-services-base:11.0.2] C:\Users\NARA-ThanhTV\.android\build-cache\17177a31a173c19fe6a8e570f27a78a14f3b5e66\output\AndroidManifest.xml:19:146-170
	android:theme
		ADDED from [com.google.android.gms:play-services-base:11.0.2] C:\Users\NARA-ThanhTV\.android\build-cache\17177a31a173c19fe6a8e570f27a78a14f3b5e66\output\AndroidManifest.xml:19:86-145
	android:name
		ADDED from [com.google.android.gms:play-services-base:11.0.2] C:\Users\NARA-ThanhTV\.android\build-cache\17177a31a173c19fe6a8e570f27a78a14f3b5e66\output\AndroidManifest.xml:19:19-85
meta-data#com.google.android.gms.version
ADDED from [com.google.android.gms:play-services-basement:11.0.2] C:\Users\NARA-ThanhTV\.android\build-cache\0b0c790b83e305ac8b699d72dafea8a0e85f584c\output\AndroidManifest.xml:20:9-121
	android:value
		ADDED from [com.google.android.gms:play-services-basement:11.0.2] C:\Users\NARA-ThanhTV\.android\build-cache\0b0c790b83e305ac8b699d72dafea8a0e85f584c\output\AndroidManifest.xml:20:66-119
	android:name
		ADDED from [com.google.android.gms:play-services-basement:11.0.2] C:\Users\NARA-ThanhTV\.android\build-cache\0b0c790b83e305ac8b699d72dafea8a0e85f584c\output\AndroidManifest.xml:20:20-65
uses-permission#android.permission.READ_PHONE_STATE
IMPLIED from D:\SVN\04_SourceCode\FSS\android\app\src\main\AndroidManifest.xml:1:1-45:12 reason: org.webkit.android_jsc has a targetSdkVersion < 4
meta-data#android.support.VERSION
ADDED from [com.android.support:appcompat-v7:25.3.1] C:\Users\NARA-ThanhTV\.android\build-cache\2955f279e2f8e6e261c9ee141a700689ac3e5ad6\output\AndroidManifest.xml:25:5-27:34
MERGED from [com.android.support:animated-vector-drawable:25.3.1] C:\Users\NARA-ThanhTV\.android\build-cache\5a8a59c4908eb1e29792b0c98f928bed3b98b21d\output\AndroidManifest.xml:22:5-24:34
MERGED from [com.android.support:support-vector-drawable:25.3.1] C:\Users\NARA-ThanhTV\.android\build-cache\0b6d35f51792d61cc0e224b0bfe7de15cbcdd4a2\output\AndroidManifest.xml:22:5-24:34
MERGED from [com.android.support:support-v4:25.3.1] C:\Users\NARA-ThanhTV\.android\build-cache\1edee2473a5714e4733e0555dc40ef94e413cfe8\output\AndroidManifest.xml:25:5-27:34
MERGED from [com.android.support:support-fragment:25.3.1] C:\Users\NARA-ThanhTV\.android\build-cache\e04cc05f57ce8bdca5d6d1f6bcc201b06b3ade3b\output\AndroidManifest.xml:25:5-27:34
MERGED from [com.android.support:support-media-compat:25.3.1] C:\Users\NARA-ThanhTV\.android\build-cache\da5d3774ab4eee18cd238d00f8b5e1f18ca29042\output\AndroidManifest.xml:25:5-27:34
MERGED from [com.android.support:support-core-ui:25.3.1] C:\Users\NARA-ThanhTV\.android\build-cache\6e30074eee18e3309f5e1410c28b8c717bf7a781\output\AndroidManifest.xml:25:5-27:34
MERGED from [com.android.support:support-core-utils:25.3.1] C:\Users\NARA-ThanhTV\.android\build-cache\a9ec874a3e63ff1e79656ae65b1cd978febc9ae9\output\AndroidManifest.xml:25:5-27:34
MERGED from [com.android.support:support-compat:25.3.1] C:\Users\NARA-ThanhTV\.android\build-cache\9c8339364353c832210a1ed54393c81535dca1c6\output\AndroidManifest.xml:25:5-27:34
	android:value
		ADDED from [com.android.support:appcompat-v7:25.3.1] C:\Users\NARA-ThanhTV\.android\build-cache\2955f279e2f8e6e261c9ee141a700689ac3e5ad6\output\AndroidManifest.xml:27:9-31
	android:name
		ADDED from [com.android.support:appcompat-v7:25.3.1] C:\Users\NARA-ThanhTV\.android\build-cache\2955f279e2f8e6e261c9ee141a700689ac3e5ad6\output\AndroidManifest.xml:26:9-47
